DMA_CTRL.sim/sim_1/behav/xsim/simulate.log
Time resolution is 1 ps

========================================
  DMA Engine Testbench v2
========================================

--- TC1: Mem-to-Mem CH0, 64 bytes ---
[310000] CH0 started  src=00000000 dst=00000200 len=64 burst=64 periph=0
[335000]  >AR addr=00000000 len=15 id=0
[505000]  <R  LAST id=0 resp=00
[545000]  >AW addr=00000200 len=15 id=0
[715000]  <B  id=0 resp=00
[715000]  >W  LAST id=0
[780000] CH0 DONE  status=00000002 err=00
  [PASS] TC1: no timeout
  [PASS] Data match 64 bytes
  [PASS] TC1: STATUS.done=1
  [PASS] TC1: STATUS.err=NONE
  [PASS] TC1: IRQ[0] asserted
  [PASS] TC1: IRQ[0] cleared after W1C

--- TC2: 4 channels concurrent, 256 bytes ---
[1190000] CH0 started  src=00000000 dst=00001000 len=256 burst=64 periph=0
[1215000]  >AR addr=00000000 len=15 id=0
[1340000] CH1 started  src=00000400 dst=00001400 len=256 burst=64 periph=0
[1385000]  <R  LAST id=0 resp=00
[1425000]  >AW addr=00001000 len=15 id=0
[1465000]  >AR addr=00000040 len=15 id=1
[1490000] CH2 started  src=00000800 dst=00001800 len=256 burst=64 periph=0
[1595000]  <B  id=0 resp=00
[1595000]  >W  LAST id=0
[1635000]  <R  LAST id=1 resp=00
[1640000] CH3 started  src=00000c00 dst=00001c00 len=256 burst=64 periph=0
[1675000]  >AW addr=00001040 len=15 id=1
[1715000]  >AR addr=00000400 len=15 id=4
[1845000]  <B  id=1 resp=00
[1845000]  >W  LAST id=1
[1885000]  <R  LAST id=4 resp=00
[1925000]  >AW addr=00001400 len=15 id=4
[1965000]  >AR addr=00000c00 len=15 id=12
[2095000]  <B  id=4 resp=00
[2095000]  >W  LAST id=4
[2135000]  <R  LAST id=12 resp=00
[2175000]  >AW addr=00001c00 len=15 id=12
[2215000]  >AR addr=00000080 len=15 id=2
[2345000]  <B  id=12 resp=00
[2345000]  >W  LAST id=12
[2385000]  <R  LAST id=2 resp=00
[2425000]  >AW addr=00001080 len=15 id=2
[2465000]  >AR addr=00000440 len=15 id=5
[2595000]  <B  id=2 resp=00
[2595000]  >W  LAST id=2
[2635000]  <R  LAST id=5 resp=00
[2675000]  >AW addr=00001440 len=15 id=5
[2715000]  >AR addr=00000800 len=15 id=8
[2845000]  <B  id=5 resp=00
[2845000]  >W  LAST id=5
[2885000]  <R  LAST id=8 resp=00
[2925000]  >AW addr=00001800 len=15 id=8
[2965000]  >AR addr=00000c40 len=15 id=13
[3095000]  <B  id=8 resp=00
[3095000]  >W  LAST id=8
[3135000]  <R  LAST id=13 resp=00
[3175000]  >AW addr=00001c40 len=15 id=13
[3215000]  >AR addr=000000c0 len=15 id=3
[3345000]  <B  id=13 resp=00
[3345000]  >W  LAST id=13
[3385000]  <R  LAST id=3 resp=00
[3425000]  >AW addr=000010c0 len=15 id=3
[3465000]  >AR addr=00000480 len=15 id=6
[3595000]  <B  id=3 resp=00
[3595000]  >W  LAST id=3
[3635000]  <R  LAST id=6 resp=00
[3660000] CH0 DONE  status=00000002 err=00
  [PASS] TC2: no timeout
[3675000]  >AW addr=00001480 len=15 id=6
[3715000]  >AR addr=00000c80 len=15 id=14
[3845000]  <B  id=6 resp=00
[3845000]  >W  LAST id=6
[3885000]  <R  LAST id=14 resp=00
[3925000]  >AW addr=00001c80 len=15 id=14
[3965000]  >AR addr=00000cc0 len=15 id=15
[4095000]  <B  id=14 resp=00
[4095000]  >W  LAST id=14
[4135000]  <R  LAST id=15 resp=00
[4175000]  >AW addr=00001cc0 len=15 id=15
[4215000]  >AR addr=00000840 len=15 id=9
[4345000]  <B  id=15 resp=00
[4345000]  >W  LAST id=15
[4385000]  <R  LAST id=9 resp=00
[4425000]  >AW addr=00001840 len=15 id=9
[4465000]  >AR addr=000004c0 len=15 id=7
[4595000]  <B  id=9 resp=00
[4595000]  >W  LAST id=9
[4635000]  <R  LAST id=7 resp=00
[4675000]  >AW addr=000014c0 len=15 id=7
[4715000]  >AR addr=00000880 len=15 id=10
[4845000]  <B  id=7 resp=00
[4845000]  >W  LAST id=7
[4885000]  <R  LAST id=10 resp=00
[4910000] CH1 DONE  status=00000002 err=00
  [PASS] TC2: no timeout
[4925000]  >AW addr=00001880 len=15 id=10
[4965000]  >AR addr=000008c0 len=15 id=11
[5095000]  <B  id=10 resp=00
[5095000]  >W  LAST id=10
[5135000]  <R  LAST id=11 resp=00
[5175000]  >AW addr=000018c0 len=15 id=11
[5345000]  <B  id=11 resp=00
[5345000]  >W  LAST id=11
[5410000] CH2 DONE  status=00000002 err=00
  [PASS] TC2: no timeout
[5440000] CH3 DONE  status=00000002 err=00
  [PASS] TC2: no timeout
  [PASS] Data match 256 bytes
  [PASS] Data match 256 bytes
  [PASS] Data match 256 bytes
  [PASS] Data match 256 bytes

--- TC3